{
  "development": {
    "username": "roymanik",
    "password": "123456",
    "database": "ch6_database_development",
    "host": "127.0.0.1",
    "dialect": "postgres"
  },
  "test": {
    "username": "roymanik",
    "password": "123456",
    "database": "ch6_database_test",
    "host": "127.0.0.1",
    "dialect": "postgres"
  },
  "production": {
    "username": "roymanik",
    "password": "123456",
    "database": "ch6_database_production",
    "host": "127.0.0.1",
    "dialect": "postgres"
  }
}
